The tests in this directory were imported from the W3C repository.
Do NOT modify these tests directly in WebKit.
Instead, create a pull request on the WPT github:
	https://github.com/w3c/web-platform-tests

Then run the Tools/Scripts/import-w3c-tests in WebKit to reimport

Do NOT modify or remove this file.

------------------------------------------------------------------------
Properties requiring vendor prefixes:
None
Property values requiring vendor prefixes:
None
------------------------------------------------------------------------
List of files:
/LayoutTests/imported/w3c/web-platform-tests/css/cssom/CSS.html
/LayoutTests/imported/w3c/web-platform-tests/css/cssom/CSSKeyframeRule.html
/LayoutTests/imported/w3c/web-platform-tests/css/cssom/CSSKeyframesRule.html
/LayoutTests/imported/w3c/web-platform-tests/css/cssom/CSSNamespaceRule.html
/LayoutTests/imported/w3c/web-platform-tests/css/cssom/CSSRuleList.html
/LayoutTests/imported/w3c/web-platform-tests/css/cssom/CSSStyleRule-set-selectorText-namespace.html
/LayoutTests/imported/w3c/web-platform-tests/css/cssom/CSSStyleRule-set-selectorText.html
/LayoutTests/imported/w3c/web-platform-tests/css/cssom/CSSStyleRule.html
/LayoutTests/imported/w3c/web-platform-tests/css/cssom/CSSStyleSheet.html
/LayoutTests/imported/w3c/web-platform-tests/css/cssom/MediaList.html
/LayoutTests/imported/w3c/web-platform-tests/css/cssom/MediaList2.xhtml
/LayoutTests/imported/w3c/web-platform-tests/css/cssom/OWNERS
/LayoutTests/imported/w3c/web-platform-tests/css/cssom/StyleSheetList.html
/LayoutTests/imported/w3c/web-platform-tests/css/cssom/at-namespace.html
/LayoutTests/imported/w3c/web-platform-tests/css/cssom/computed-style-001.html
/LayoutTests/imported/w3c/web-platform-tests/css/cssom/computed-style-002.html
/LayoutTests/imported/w3c/web-platform-tests/css/cssom/computed-style-003.html
/LayoutTests/imported/w3c/web-platform-tests/css/cssom/computed-style-004.html
/LayoutTests/imported/w3c/web-platform-tests/css/cssom/computed-style-set-property.html
/LayoutTests/imported/w3c/web-platform-tests/css/cssom/css-style-attr-decl-block.html
/LayoutTests/imported/w3c/web-platform-tests/css/cssom/css-style-attribute-modifications.html
/LayoutTests/imported/w3c/web-platform-tests/css/cssom/css-style-declaration-modifications.html
/LayoutTests/imported/w3c/web-platform-tests/css/cssom/css-style-reparse.html
/LayoutTests/imported/w3c/web-platform-tests/css/cssom/cssimportrule.html
/LayoutTests/imported/w3c/web-platform-tests/css/cssom/cssom-cssText-serialize.html
/LayoutTests/imported/w3c/web-platform-tests/css/cssom/cssom-cssstyledeclaration-set.html
/LayoutTests/imported/w3c/web-platform-tests/css/cssom/cssom-fontfacerule-constructors.html
/LayoutTests/imported/w3c/web-platform-tests/css/cssom/cssom-fontfacerule.html
/LayoutTests/imported/w3c/web-platform-tests/css/cssom/cssom-ruleTypeAndOrder.html
/LayoutTests/imported/w3c/web-platform-tests/css/cssom/cssom-setProperty-shorthand.html
/LayoutTests/imported/w3c/web-platform-tests/css/cssom/cssstyledeclaration-csstext-final-delimiter.html
/LayoutTests/imported/w3c/web-platform-tests/css/cssom/cssstyledeclaration-csstext-important.html
/LayoutTests/imported/w3c/web-platform-tests/css/cssom/cssstyledeclaration-csstext.html
/LayoutTests/imported/w3c/web-platform-tests/css/cssom/cssstyledeclaration-mutability.html
/LayoutTests/imported/w3c/web-platform-tests/css/cssom/cssstyledeclaration-mutationrecord-001.html
/LayoutTests/imported/w3c/web-platform-tests/css/cssom/cssstyledeclaration-mutationrecord-002.html
/LayoutTests/imported/w3c/web-platform-tests/css/cssom/cssstyledeclaration-mutationrecord-003.html
/LayoutTests/imported/w3c/web-platform-tests/css/cssom/cssstyledeclaration-mutationrecord-004.html
/LayoutTests/imported/w3c/web-platform-tests/css/cssom/cssstyledeclaration-setter-order.html
/LayoutTests/imported/w3c/web-platform-tests/css/cssom/escape.html
/LayoutTests/imported/w3c/web-platform-tests/css/cssom/font-shorthand-serialization.html
/LayoutTests/imported/w3c/web-platform-tests/css/cssom/getComputedStyle-detached-subtree.html
/LayoutTests/imported/w3c/web-platform-tests/css/cssom/getComputedStyle-dynamic-subdoc.html
/LayoutTests/imported/w3c/web-platform-tests/css/cssom/getComputedStyle-pseudo.html
/LayoutTests/imported/w3c/web-platform-tests/css/cssom/historical.html
/LayoutTests/imported/w3c/web-platform-tests/css/cssom/inline-style-001.html
/LayoutTests/imported/w3c/web-platform-tests/css/cssom/insertRule-charset-no-index.html
/LayoutTests/imported/w3c/web-platform-tests/css/cssom/insertRule-import-no-index.html
/LayoutTests/imported/w3c/web-platform-tests/css/cssom/insertRule-namespace-no-index.html
/LayoutTests/imported/w3c/web-platform-tests/css/cssom/insertRule-no-index.html
/LayoutTests/imported/w3c/web-platform-tests/css/cssom/insertRule-syntax-error-01.html
/LayoutTests/imported/w3c/web-platform-tests/css/cssom/interfaces.html
/LayoutTests/imported/w3c/web-platform-tests/css/cssom/medialist-dynamic-001-expected.html
/LayoutTests/imported/w3c/web-platform-tests/css/cssom/medialist-dynamic-001.html
/LayoutTests/imported/w3c/web-platform-tests/css/cssom/medialist-interfaces-001.html
/LayoutTests/imported/w3c/web-platform-tests/css/cssom/medialist-interfaces-002.html
/LayoutTests/imported/w3c/web-platform-tests/css/cssom/medialist-interfaces-003.html
/LayoutTests/imported/w3c/web-platform-tests/css/cssom/medialist-interfaces-004.html
/LayoutTests/imported/w3c/web-platform-tests/css/cssom/overflow-serialization.html
/LayoutTests/imported/w3c/web-platform-tests/css/cssom/preferred-stylesheet-order.html
/LayoutTests/imported/w3c/web-platform-tests/css/cssom/preferred-stylesheet-reversed-order.html
/LayoutTests/imported/w3c/web-platform-tests/css/cssom/selectorSerialize.html
/LayoutTests/imported/w3c/web-platform-tests/css/cssom/selectorText-modification-restyle-001-expected.html
/LayoutTests/imported/w3c/web-platform-tests/css/cssom/selectorText-modification-restyle-001.html
/LayoutTests/imported/w3c/web-platform-tests/css/cssom/selectorText-modification-restyle-002.html
/LayoutTests/imported/w3c/web-platform-tests/css/cssom/serialization-CSSDeclaration-with-important.html
/LayoutTests/imported/w3c/web-platform-tests/css/cssom/serialize-namespaced-type-selectors.html
/LayoutTests/imported/w3c/web-platform-tests/css/cssom/serialize-values.html
/LayoutTests/imported/w3c/web-platform-tests/css/cssom/serialize-variable-reference.html
/LayoutTests/imported/w3c/web-platform-tests/css/cssom/setproperty-null-undefined.html
/LayoutTests/imported/w3c/web-platform-tests/css/cssom/shorthand-serialization.html
/LayoutTests/imported/w3c/web-platform-tests/css/cssom/shorthand-values.html
/LayoutTests/imported/w3c/web-platform-tests/css/cssom/style-sheet-interfaces-001.html
/LayoutTests/imported/w3c/web-platform-tests/css/cssom/style-sheet-interfaces-002.html
/LayoutTests/imported/w3c/web-platform-tests/css/cssom/stylesheet-replacedata-dynamic-expected.html
/LayoutTests/imported/w3c/web-platform-tests/css/cssom/stylesheet-replacedata-dynamic.html
/LayoutTests/imported/w3c/web-platform-tests/css/cssom/stylesheet-same-origin.css
/LayoutTests/imported/w3c/web-platform-tests/css/cssom/stylesheet-same-origin.sub.html
/LayoutTests/imported/w3c/web-platform-tests/css/cssom/stylesheet-title.html
/LayoutTests/imported/w3c/web-platform-tests/css/cssom/ttwf-cssom-doc-ext-load-count.html
/LayoutTests/imported/w3c/web-platform-tests/css/cssom/ttwf-cssom-doc-ext-load-tree-order.html
/LayoutTests/imported/w3c/web-platform-tests/css/cssom/ttwf-cssom-document-extension.html
/LayoutTests/imported/w3c/web-platform-tests/css/cssom/variable-names.html
