The tests in this directory were imported from the W3C repository.
Do NOT modify these tests directly in WebKit.
Instead, create a pull request on the WPT github:
	https://github.com/web-platform-tests/wpt

Then run the Tools/Scripts/import-w3c-tests in WebKit to reimport

Do NOT modify or remove this file.

------------------------------------------------------------------------
Properties requiring vendor prefixes:
None
Property values requiring vendor prefixes:
None
------------------------------------------------------------------------
List of files:
/LayoutTests/imported/w3c/web-platform-tests/fetch/cross-origin-resource-policy/fetch-in-iframe.html
/LayoutTests/imported/w3c/web-platform-tests/fetch/cross-origin-resource-policy/fetch.any.js
/LayoutTests/imported/w3c/web-platform-tests/fetch/cross-origin-resource-policy/iframe-loads.html
/LayoutTests/imported/w3c/web-platform-tests/fetch/cross-origin-resource-policy/image-loads.html
/LayoutTests/imported/w3c/web-platform-tests/fetch/cross-origin-resource-policy/scheme-restriction.any.js
/LayoutTests/imported/w3c/web-platform-tests/fetch/cross-origin-resource-policy/scheme-restriction.https.window.js
/LayoutTests/imported/w3c/web-platform-tests/fetch/cross-origin-resource-policy/script-loads.html
/LayoutTests/imported/w3c/web-platform-tests/fetch/cross-origin-resource-policy/syntax.any.js
