The tests in this directory were imported from the W3C repository.
Do NOT modify these tests directly in WebKit.
Instead, create a pull request on the WPT github:
	https://github.com/web-platform-tests/wpt

Then run the Tools/Scripts/import-w3c-tests in WebKit to reimport

Do NOT modify or remove this file.

------------------------------------------------------------------------
Properties requiring vendor prefixes:
None
Property values requiring vendor prefixes:
None
------------------------------------------------------------------------
List of files:
/LayoutTests/imported/w3c/web-platform-tests/html/semantics/embedded-content/the-img-element/3.jpg
/LayoutTests/imported/w3c/web-platform-tests/html/semantics/embedded-content/the-img-element/404-response-with-actual-image-data.html
/LayoutTests/imported/w3c/web-platform-tests/html/semantics/embedded-content/the-img-element/404-response-with-actual-image-data.py
/LayoutTests/imported/w3c/web-platform-tests/html/semantics/embedded-content/the-img-element/Image-constructor.html
/LayoutTests/imported/w3c/web-platform-tests/html/semantics/embedded-content/the-img-element/adoption.html
/LayoutTests/imported/w3c/web-platform-tests/html/semantics/embedded-content/the-img-element/available-images-expected.html
/LayoutTests/imported/w3c/web-platform-tests/html/semantics/embedded-content/the-img-element/available-images-onload.html
/LayoutTests/imported/w3c/web-platform-tests/html/semantics/embedded-content/the-img-element/available-images.html
/LayoutTests/imported/w3c/web-platform-tests/html/semantics/embedded-content/the-img-element/brokenimg.jpg
/LayoutTests/imported/w3c/web-platform-tests/html/semantics/embedded-content/the-img-element/data-url.html
/LayoutTests/imported/w3c/web-platform-tests/html/semantics/embedded-content/the-img-element/delay-load-event-detached.html
/LayoutTests/imported/w3c/web-platform-tests/html/semantics/embedded-content/the-img-element/delay-load-event.html
/LayoutTests/imported/w3c/web-platform-tests/html/semantics/embedded-content/the-img-element/document-adopt-base-url-expected.html
/LayoutTests/imported/w3c/web-platform-tests/html/semantics/embedded-content/the-img-element/document-adopt-base-url.html
/LayoutTests/imported/w3c/web-platform-tests/html/semantics/embedded-content/the-img-element/document-base-url-expected.html
/LayoutTests/imported/w3c/web-platform-tests/html/semantics/embedded-content/the-img-element/document-base-url.html
/LayoutTests/imported/w3c/web-platform-tests/html/semantics/embedded-content/the-img-element/historical-progress-event.window.js
/LayoutTests/imported/w3c/web-platform-tests/html/semantics/embedded-content/the-img-element/image-1.jpg
/LayoutTests/imported/w3c/web-platform-tests/html/semantics/embedded-content/the-img-element/image.png
/LayoutTests/imported/w3c/web-platform-tests/html/semantics/embedded-content/the-img-element/img-with-containment-and-size-expected.html
/LayoutTests/imported/w3c/web-platform-tests/html/semantics/embedded-content/the-img-element/img-with-containment-and-size.html
/LayoutTests/imported/w3c/web-platform-tests/html/semantics/embedded-content/the-img-element/img.complete.html
/LayoutTests/imported/w3c/web-platform-tests/html/semantics/embedded-content/the-img-element/invalid-src.html
/LayoutTests/imported/w3c/web-platform-tests/html/semantics/embedded-content/the-img-element/non-active-document.html
/LayoutTests/imported/w3c/web-platform-tests/html/semantics/embedded-content/the-img-element/nonexistent-image.html
/LayoutTests/imported/w3c/web-platform-tests/html/semantics/embedded-content/the-img-element/not-rendered-dimension-getter.html
/LayoutTests/imported/w3c/web-platform-tests/html/semantics/embedded-content/the-img-element/null-image-source.html
/LayoutTests/imported/w3c/web-platform-tests/html/semantics/embedded-content/the-img-element/relevant-mutations.html
/LayoutTests/imported/w3c/web-platform-tests/html/semantics/embedded-content/the-img-element/update-media.html
/LayoutTests/imported/w3c/web-platform-tests/html/semantics/embedded-content/the-img-element/update-src-complete.html
/LayoutTests/imported/w3c/web-platform-tests/html/semantics/embedded-content/the-img-element/update-the-source-set.html
/LayoutTests/imported/w3c/web-platform-tests/html/semantics/embedded-content/the-img-element/usemap-casing.html
