The tests in this directory were imported from the W3C repository.
Do NOT modify these tests directly in WebKit.
Instead, create a pull request on the WPT github:
	https://github.com/w3c/web-platform-tests

Then run the Tools/Scripts/import-w3c-tests in WebKit to reimport

Do NOT modify or remove this file.

------------------------------------------------------------------------
Properties requiring vendor prefixes:
None
Property values requiring vendor prefixes:
None
------------------------------------------------------------------------
List of files:
/LayoutTests/imported/w3c/web-platform-tests/css-timing-1/OWNERS
/LayoutTests/imported/w3c/web-platform-tests/css-timing-1/cubic-bezier-timing-functions-output.html
/LayoutTests/imported/w3c/web-platform-tests/css-timing-1/frames-timing-functions-output.html
/LayoutTests/imported/w3c/web-platform-tests/css-timing-1/frames-timing-functions-syntax.html
/LayoutTests/imported/w3c/web-platform-tests/css-timing-1/step-timing-functions-output.html
/LayoutTests/imported/w3c/web-platform-tests/css-timing-1/testcommon.js
