The tests in this directory were imported from the W3C repository.
Do NOT modify these tests directly in WebKit.
Instead, create a pull request on the WPT github:
	https://github.com/web-platform-tests/wpt

Then run the Tools/Scripts/import-w3c-tests in WebKit to reimport

Do NOT modify or remove this file.

------------------------------------------------------------------------
Properties requiring vendor prefixes:
None
Property values requiring vendor prefixes:
None
------------------------------------------------------------------------
List of files:
/LayoutTests/imported/w3c/web-platform-tests/content-security-policy/unsafe-eval/eval-allowed.sub.html
/LayoutTests/imported/w3c/web-platform-tests/content-security-policy/unsafe-eval/eval-blocked-and-sends-report.sub.html
/LayoutTests/imported/w3c/web-platform-tests/content-security-policy/unsafe-eval/eval-blocked-in-about-blank-iframe.sub.html
/LayoutTests/imported/w3c/web-platform-tests/content-security-policy/unsafe-eval/eval-blocked.sub.html
/LayoutTests/imported/w3c/web-platform-tests/content-security-policy/unsafe-eval/eval-scripts-setInterval-allowed.sub.html
/LayoutTests/imported/w3c/web-platform-tests/content-security-policy/unsafe-eval/eval-scripts-setInterval-blocked.sub.html
/LayoutTests/imported/w3c/web-platform-tests/content-security-policy/unsafe-eval/eval-scripts-setTimeout-allowed.sub.html
/LayoutTests/imported/w3c/web-platform-tests/content-security-policy/unsafe-eval/eval-scripts-setTimeout-blocked.sub.html
/LayoutTests/imported/w3c/web-platform-tests/content-security-policy/unsafe-eval/function-constructor-allowed.sub.html
/LayoutTests/imported/w3c/web-platform-tests/content-security-policy/unsafe-eval/function-constructor-blocked.sub.html
